646718 71039 509
743445 749709 393
363353 550796 470
391252 53346 443
83928 293368 443
595746 416727 470
376972 450339 449
504859 246677 449
699955 506789 509
490963 915475 525
739112 25984 509
851736 800311 525
381674 424854 449
410587 843325 525
423526 451109 418
861166 584448 525
522147 118816 470
334157 399704 441
669612 239614 509
453049 267744 449
532981 48795 470
684470 909953 525
13339 189329 383
670834 713293 504
696117 161797 509
142973 949434 525
701984 994708 525
749745 83658 509
933766 674536 525
441187 871497 525
125645 816558 509
455945 161996 449
935373 304307 525
561700 604985 434
543920 14749 470
872728 591105 525
577748 71403 470
15263 591086 470
260731 686097 509
818583 471053 509
362098 475760 449
420487 64083 449
470469 684436 509
661944 918439 525
873176 103132 525
789936 513026 509
919689 760086 525
675021 855062 525
64393 750925 509
460048 122517 449
279879 846980 525
713621 371831 509
918383 243089 525
962916 693318 525
929185 295704 525
678575 291283 509
771463 99062 509
869569 756136 525
297702 531514 470
188781 685083 509
634645 492921 509
198109 68539 383
253007 387334 441
923600 831603 525
652464 897852 525
954119 932342 507
259038 181946 443
304173 691625 509
425034 781293 509
384943 868423 525
591201 577723 434
673910 876868 525
190989 543480 470
633005 488691 509
589198 335990 470
173774 738047 509
828910 886086 525
806585 596122 509
273420 730185 509
427725 440088 400
142243 896049 525
372430 401280 436
77995 190807 383
92905 17233 351
486304 992051 525
399860 77505 443
569774 73770 470
954373 760763 525
131454 101583 354
763658 234856 509
437572 451636 400
972902 780686 525
337722 779487 509
891012 125346 525
509673 832942 509
565434 651915 509
728991 452068 509
567399 321190 470
642875 660303 429
852626 129179 525
652354 252486 509
720888 736333 424
840459 675261 525
497096 971913 525
291048 260754 407
206769 242824 443
712389 693876 504
23510 564315 470
473363 428727 444
689660 497240 509
261669 769298 509
663359 504864 509
221367 230758 443
826053 378446 509
891060 678679 525
21829 57620 340
445369 742716 509
793952 285828 509
417977 805252 509
771945 709024 468
66006 492919 449
951847 292599 525
186795 489562 449
856913 660157 525
432493 60778 449
671602 694161 442
344281 334961 366
199025 565647 470
565719 539282 452
458297 970983 525
732165 480125 509
542807 177534 470
222842 850963 525
977565 155023 525
656215 749511 504
378252 236425 441
756634 844303 525
529023 943428 525
333865 900140 525
117790 280562 443
475123 789391 509
974722 819403 525
124353 687951 509
899254 204276 525
227233 871755 525
689463 959397 525
351880 232271 441
651135 88926 509
83234 628701 509
243949 253654 350
892416 622200 525
490078 649050 509
466503 533306 470
106683 314573 443
433446 224472 449
595134 422773 470
528068 84062 470
756380 652420 504
772012 655634 504
370900 999245 525
527389 60363 470
472847 393474 449
806837 123983 509
482399 404276 449
752683 726347 424
657929 645099 429
862751 662211 525
808353 843459 525
195517 915035 525
158032 143168 383
653711 267370 509
565940 181779 470
351431 322321 441
348403 637648 509
492159 233507 449
151098 533753 470
293870 623944 470
441431 614911 470
747926 923829 525
533391 500609 470
164382 705524 509
659912 541337 509
367736 982469 525
384796 563252 470
897504 57032 525
220624 65421 386
324402 786564 509
761403 190037 509
623089 109807 470
341889 629452 509
343313 492986 449
677409 151387 509
116931 118840 336
280503 864856 525
42670 813893 509
879670 721255 525
519418 53787 470
262592 887153 525
36257 161593 383
964609 447965 525
218624 185234 386
513385 57230 470
486002 274789 449
247267 623295 470
898799 589155 525
252747 756316 509
596346 444361 470
421908 713276 509
563200 702410 509
92337 120074 354
516303 486211 470
355533 549925 470
539998 618125 452
951282 576254 525
779717 915892 525
24219 512545 470
615330 51809 470
569775 615536 447
840801 331246 525
238831 253805 368
434605 5782 449
10121 30951 308
450142 432028 400
258431 527547 470
134438 350768 443
647620 164946 509
836978 3154 509
714870 376976 509
135483 180358 383
467434 429404 444
96250 5858 351
941948 225784 525
571870 25928 470
841319 412671 525
357173 594354 470
180680 791778 509
600135 190800 470
822728 564482 509
622828 81160 470
92029 271470 443
946131 253853 525
950619 297314 525
257006 179695 443
188495 906692 525
360052 655928 509
336096 970505 525
175990 792249 509
196289 747859 509
818176 551812 509
674734 175350 509
