1 10 20
100 200 125
201 210 89
900 1000 174
1 2 2
1 999999 525
9 9 20
5 10 20
6 10 20
7 10 20
8 10 20
9 10 20
11 21 21
11 23 21
11 25 24
11 27 112
11 26 24
11 22 21
11 24 21
12 22 21
12 25 24
12 28 112
12 26 24
13 26 24
14 27 112
14 26 24
15 26 24
16 26 24
17 27 112
17 26 24
18 26 24
19 28 112
19 26 24
20 27 112
20 26 24
21 26 24
22 26 24
23 27 112
23 26 24
24 26 24
25 26 24
26 27 112
26 29 112
26 28 112
27 53 112
28 53 110
29 55 113
29 60 113
29 65 113
29 70 113
29 75 116
29 53 110
30 53 110
31 53 110
32 61 113
32 63 113
32 65 113
32 67 113
32 69 113
32 71 113
32 73 116
32 75 116
32 53 110
33 61 113
33 64 113
33 67 113
33 70 113
33 73 116
33 76 116
33 53 110
34 53 110
35 75 116
35 53 110
36 53 110
37 53 110
38 75 116
38 53 110
39 53 110
40 76 116
40 53 110
41 75 116
41 53 110
42 53 105
42 54 113
42 55 113
42 56 113
42 57 113
42 58 113
42 59 113
42 60 113
42 61 113
42 62 113
42 63 113
42 64 113
42 65 113
42 66 113
42 67 113
42 68 113
42 69 113
42 70 113
42 71 113
42 72 113
42 73 116
42 74 116
43 74 116
44 75 116
44 74 116
45 74 116
46 74 116
47 75 116
47 76 116
47 74 116
48 74 116
49 74 116
50 75 116
50 74 116
51 74 116
52 74 116
53 75 116
53 74 116
54 76 116
54 74 116
55 74 116
56 75 116
56 74 116
57 74 116
58 74 116
59 75 116
59 74 116
60 74 116
61 76 116
61 74 116
62 75 116
62 74 116
63 74 116
64 74 116
65 75 116
65 74 116
66 74 116
67 74 116
68 75 116
68 76 116
68 74 116
69 74 116
70 74 116
71 75 116
71 74 116
72 74 116
73 74 116
74 75 23
74 77 23
74 79 36
75 76 23
75 79 36
75 149 122
76 149 122
77 79 36
77 152 122
77 149 122
80 159 122
82 161 122
83 159 122
83 152 122
86 159 122
89 159 122
89 152 122
89 161 122
92 159 122
95 159 122
95 152 122
96 161 122
98 159 122
101 159 122
101 152 122
103 161 122
104 159 122
107 159 122
107 152 122
110 159 122
110 161 122
113 159 122
113 152 122
116 159 122
117 161 122
119 159 122
119 152 122
122 159 122
124 161 122
125 159 122
125 152 122
128 159 122
131 159 117
131 161 117
131 163 117
131 165 117
131 167 117
131 169 117
131 171 125
131 173 125
131 175 125
131 177 125
131 179 125
131 181 125
131 183 125
131 185 125
131 187 125
131 189 125
131 191 125
131 193 125
131 195 125
131 197 125
131 199 125
131 201 125
131 203 125
131 205 125
131 207 125
131 209 125
131 211 125
131 213 125
131 215 125
131 217 125
131 219 125
131 221 125
131 223 125
131 225 125
131 227 125
131 229 125
131 231 128
131 233 128
131 152 117
131 157 117
131 162 117
131 172 125
131 182 125
131 192 125
131 202 125
131 212 125
131 222 125
131 232 128
131 164 117
131 170 117
131 176 125
131 188 125
131 194 125
131 200 125
131 206 125
131 218 125
131 224 125
131 230 125
134 233 128
137 233 128
137 232 128
138 233 128
140 233 128
143 233 128
143 232 128
145 233 128
146 233 128
149 233 128
149 232 128
